…
\begin{equation}

r^2(p_a,p_b,p_{ab}) = \frac{(p_{ab}−p_a \cdot p_b)^2}{ p_a \cdot (1−p_a) \cdot p_b\cdot(1−p_b)}

\end{equation}

where $p_a$ is the frequency of allele $a$ at locus 1, $p_b$ is the frequency of allele $b$ at locus 2 and $p_{ab}$ is the frequency of haplotypes having allele $a$ at locus 1 and allele $b$ at locus 2 (Hill & Robertson, 1968).

Read more at wikipedia (if you like).

HINT: ?lead, tidy data
HINT: only use cases where both SNPs are genotyped in the line (i.e. 0 or 2)

```
# A tibble: 3,953,818 x 14
   chr      pos id            ref   alt    refc  altc  qual   cov snptype line     genotype genotype2 haplotype
   <chr>  <int> <chr>         <chr> <chr> <int> <int> <int> <int> <chr>   <chr>    <chr>    <chr>     <chr>    
 1 3L    100250 3L_100250_SNP A     G       179    14   999    24 SNP     line_100 0        0         0 0      
 2 3L    100256 3L_100256_SNP A     C       202     3   999    24 SNP     line_100 0        0         0 0      
 3 3L    100274 3L_100274_SNP G     T       184    16   999    24 SNP     line_100 0        0         0 0      
 4 3L    100365 3L_100365_SNP C     A       203     1   999    30 SNP     line_100 0        0         0 0      
 5 3L    100424 3L_100424_SNP T     A       204     1   999    31 SNP     line_100 0        0         0 0      
 6 3L    100626 3L_100626_SNP A     T       204     1   999    35 SNP     line_100 0        2         0 2      
 7 3L    100728 3L_100728_SNP T     A        78   123   999    33 SNP     line_100 2        0         2 0      
 8 3L    100731 3L_100731_SNP C     A       203     2   999    34 SNP     line_100 0        0         0 0      
 9 3L    100858 3L_100858_SNP C     G       203     1   999    32 SNP     line_100 0        0         0 0      
10 3L    100876 3L_100876_SNP G     C       204     1   999    31 SNP     line_100 0        0         0 0      
# ... with 3,953,808 more rows
…
